<svg width="48" height="54" viewBox="0 0 48 54" fill="none" xmlns="http://www.w3.org/2000/svg">
<path d="M13.8057 0H2.99898C1.34269 0 0 1.33547 0 2.98286V51.0171C0 52.6645 1.34269 54 2.99898 54H13.8057C15.4619 54 16.8046 52.6645 16.8046 51.0171V2.98286C16.8046 1.33547 15.4619 0 13.8057 0Z" fill="white"/>
<path d="M44.8271 0H34.0205C32.3642 0 31.0215 1.33547 31.0215 2.98286V51.0171C31.0215 52.6645 32.3642 54 34.0205 54H44.8271C46.4834 54 47.8261 52.6645 47.8261 51.0171V2.98286C47.8261 1.33547 46.4834 0 44.8271 0Z" fill="white"/>
</svg>
