<svg width="20" height="20" viewBox="0 0 20 20" fill="none" xmlns="http://www.w3.org/2000/svg">
<rect width="20" height="20" rx="5" fill="#898989"/>
<path d="M8.4768 14.8212C7.95789 14.8212 7.42377 14.7792 6.88645 14.695C5.94008 14.5465 4.98208 14.0515 4.71099 13.9032L4 13.5145L4.76977 13.2614C5.61122 12.9847 6.12309 12.813 6.75672 12.5442C6.12227 12.237 5.63329 11.6843 5.39791 10.9698L5.21883 10.4262L5.36568 10.4486C5.22643 10.3083 5.11648 10.1658 5.03124 10.0363C4.72811 9.57585 4.56762 9.01326 4.60177 8.53115L4.63546 8.05663L4.91955 8.16668C4.79971 7.94036 4.7131 7.69867 4.6622 7.44534C4.53814 6.82755 4.64196 6.17121 4.95461 5.59727L5.20208 5.14299L5.53304 5.54051C6.57975 6.79789 7.90552 7.54376 9.47902 7.76211C9.41475 7.31909 9.46291 6.89154 9.6223 6.50831C9.80788 6.06208 10.138 5.6837 10.5767 5.41398C11.064 5.11452 11.6548 4.96941 12.2405 5.00539C12.8619 5.04357 13.426 5.27638 13.8741 5.67912C14.0929 5.62227 14.2541 5.56157 14.472 5.47954C14.6031 5.43019 14.7518 5.37416 14.9378 5.31007L15.6234 5.07387L15.1763 6.35065C15.2058 6.34818 15.2362 6.34608 15.268 6.3447L16 6.31156L15.5673 6.9029C15.5425 6.93677 15.5362 6.94638 15.5274 6.95966C15.4925 7.01221 15.4491 7.07758 14.8552 7.8706C14.7066 8.06918 14.6323 8.32781 14.6461 8.59899C14.6988 9.6295 14.5723 10.5619 14.2701 11.3701C13.9843 12.1347 13.5414 12.7908 12.9538 13.3201C12.2267 13.9748 11.2995 14.4232 10.198 14.6524C9.65764 14.7648 9.07738 14.8212 8.4768 14.8212Z" fill="white"/>
</svg>
